Fecha: 5/7/2019 11:52:21 AM 
Error: Exception: 
Detalle: Arithmetic overflow error converting numeric to data type numeric.
The statement has been terminated.
^^-------------------------------------------------------------------^^
Fecha: 5/7/2019 11:52:23 AM 
Error: Exception: 
Detalle: Arithmetic overflow error converting numeric to data type numeric.
The statement has been terminated.
^^-------------------------------------------------------------------^^
Fecha: 5/7/2019 11:52:24 AM 
Error: Exception: 
Detalle: Arithmetic overflow error converting numeric to data type numeric.
The statement has been terminated.
^^-------------------------------------------------------------------^^
